strategic_region={
	id=41
	name="STRATEGICREGION_41"
	provinces={
		724 726 729 738 740 747 758 790 794 798 799 809 813 832 844 845 854 857 858 871 872 874 875 877 879 884 885 888 889 896 897 899 903 915 918 920 924 931 932 938 939 942 948 950 962 970 977 980 985 1048 1090 1093 1176 1178 1192 3725 3727 3729 3735 3737 3744 3761 3790 3794 3798 3799 3810 3816 3820 3835 3845 3846 3858 3859 3861 3866 3871 3873 3874 3886 3887 3891 3892 3898 3899 3902 3909 3918 3920 3926 3930 3931 3933 3938 3940 3945 3953 3954 3969 3986 4024 4065 4080 4095 4098 4135 4182 4195 6734 6744 6746 6749 6756 6764 6800 6812 6817 6818 6832 6836 6841 6856 6865 6866 6867 6878 6879 6880 6884 6896 6901 6902 6903 6906 6907 6914 6921 6924 6927 6933 6936 6941 6948 6954 6955 6959 6966 6986 6993 6996 7068 7098 7111 7153 7183 7196 7198 7213 9686 9689 9699 9700 9703 9719 9757 9764 9765 9767 9770 9778 9785 9787 9797 9800 9812 9813 9815 9817 9819 9827 9828 9839 9840 9842 9846 9852 9857 9869 9870 9872 9877 9881 9889 9891 9896 9903 9917 9925 9933 9979 10009 10024 10063 10094 10109 10111 11673 11675 11677 11684 11688 11692 11707 11710 11737 11742 11749 11756 11766 11768 11780 11793 11798 11805 11806 11807 11809 11812 11819 11820 11821 11825 11838 11840 11843 11851 11852 11854 11863 11870 11884 11885 11956 12038 12070 12081 12083 13208 13211 13867 13903
	}
	weather={
		period={
			between={ 0.0 30.0 }
			temperature={ 1.0 11.0 }
			temperature_day_night={ 8.0 -9.0 }
			no_phenomenon=0.7
			rain_light=0.2
			rain_heavy=0.08
			snow=0.02
			blizzard=0
			mud=1
			sandstorm=0
			min_snow_level=0			
		}
		period={
			between={ 0.1 27.1 }
			temperature={ 2.0 13.0 }
			temperature_day_night={ 9.0 -9.0 }
			no_phenomenon=0.7
			rain_light=0.2
			rain_heavy=0.08
			snow=0.02
			blizzard=0
			mud=1
			sandstorm=0
			min_snow_level=0			
		}
		period={
			between={ 0.2 30.2 }
			temperature={ 4.0 17.0 }
			temperature_day_night={ 7.0 -7.0 }
			no_phenomenon=0.7
			rain_light=0.2
			rain_heavy=0.1
			snow=0
			blizzard=0
			mud=1
			sandstorm=0
			min_snow_level=0			
		}
		period={
			between={ 0.3 29.3 }
			temperature={ 6.0 18.0 }
			temperature_day_night={ 7.0 -7.0 }
			no_phenomenon=0.65
			rain_light=0.25
			rain_heavy=0.1
			snow=0
			blizzard=0
			mud=1
			sandstorm=0
			min_snow_level=0			
		}
		period={
			between={ 0.4 30.4 }
			temperature={ 10.0 23.0 }
			temperature_day_night={ 7.0 -7.0 }
			no_phenomenon=0.65
			rain_light=0.25
			rain_heavy=0.1
			snow=0
			blizzard=0
			mud=1
			sandstorm=0
			min_snow_level=0			
		}
		period={
			between={ 0.5 29.5 }
			temperature={ 14.0 29.0 }
			temperature_day_night={ 8.0 -8.0 }
			no_phenomenon=0.7
			rain_light=0.2
			rain_heavy=0.1
			snow=0
			blizzard=0
			mud=1
			sandstorm=0
			min_snow_level=0			
		}
		period={
			between={ 0.6 30.6 }
			temperature={ 17.0 34.0 }
			temperature_day_night={ 8.0 -8.0 }
			no_phenomenon=0.8
			rain_light=0.15
			rain_heavy=0.05
			snow=0
			blizzard=0
			mud=1
			sandstorm=0
			min_snow_level=0			
		}
		period={
			between={ 0.7 30.7 }
			temperature={ 17.0 33.0 }
			temperature_day_night={ 7.0 -6.0 }
			no_phenomenon=0.85
			rain_light=0.1
			rain_heavy=0.05
			snow=0
			blizzard=0
			mud=1
			sandstorm=0
			min_snow_level=0			
		}
		period={
			between={ 0.8 29.8 }
			temperature={ 13.0 27.0 }
			temperature_day_night={ 8.0 -6.0 }
			no_phenomenon=0.85
			rain_light=0.1
			rain_heavy=0.05
			snow=0
			blizzard=0
			mud=1
			sandstorm=0
			min_snow_level=0			
		}
		period={
			between={ 0.9 30.9 }
			temperature={ 9.0 21.0 }
			temperature_day_night={ 8.0 -6.0 }
			no_phenomenon=0.75
			rain_light=0.15
			rain_heavy=0.1
			snow=0
			blizzard=0
			mud=1
			sandstorm=0
			min_snow_level=0			
		}
		period={
			between={ 0.10 29.10 }
			temperature={ 4.0 14.0 }
			temperature_day_night={ 8.0 -8.0 }
			no_phenomenon=0.65
			rain_light=0.25
			rain_heavy=0.1
			snow=0
			blizzard=0
			mud=1
			sandstorm=0
			min_snow_level=0			
		}
		period={
			between={ 0.11 30.11 }
			temperature={ 2.0 11.0 }
			temperature_day_night={ 8.0 -8.0 }
			no_phenomenon=0.65
			rain_light=0.25
			rain_heavy=0.8
			snow=0.02
			blizzard=0
			mud=1
			sandstorm=0
			min_snow_level=0			
		}
	}
}
