state={
	id=1022
	name="STATE_1022"

	state_category = large_city
	history={
		owner = GRS
		victory_points = { 6568 1 }
		buildings = {
			infrastructure = 8
			arms_factory = 1
		}
		add_core_of = GRS
		add_core_of = GCM
		1939.1.1 = {
			buildings = {
				arms_factory = 2

			}

		}

	}

	provinces={
		3530 6581 6568
	}
	manpower=311919
	buildings_max_level_factor=1.000
}
