state={
	id=1029
	name="STATE_1029"
	manpower = 17601
	
	state_category = enclave
	
	history={
		owner = BCM

		buildings = {
			infrastructure = 5
		}
		add_core_of = BCM 
		
	
	}

	provinces={
		13604
	}
}
