state={
	id=1033
	name="STATE_1033"

	state_category = town

	history={
		owner = ITA
		add_core_of = FRA
		add_core_of = ITA
		victory_points = {
			11573 1 
		}		
		buildings = {
			infrastructure = 3		
		}
	}

	provinces={
		778 11573 
	}
	manpower=28073
	buildings_max_level_factor=1.000
}
