
state={
	id=1036
	name="STATE_1036" # Lorraine
	manpower = 50067
	
	state_category = city

	history={
		owner = FRA
		victory_points = {
			11516 5 
		}
		buildings = {
			infrastructure = 7
			industrial_complex = 1
		}
		add_core_of = FRA
	}

	provinces={
		521 11516
	}
}
