
state={
	id=1038
	name="STATE_1038"
	manpower = 102741	
	
	state_category = rural

	history={
		owner = FRA
		victory_points = {
			11483 10
		}		
		buildings = {
			infrastructure = 7
			industrial_complex = 1
			air_base = 10
		}
		add_core_of = FRA
		add_core_of = WLN
		1939.1.1 = {
			buildings = {
				industrial_complex = 2
			}
		}
	}

	provinces={
		11483 11606
	}
}