state={
	id=1052
	name="STATE_1052"
	
	state_category = rural

	history={
		owner = RAJ
		victory_points = {
			4913 1 
		}		
		buildings = {
			infrastructure = 1
			4913 = {
				naval_base = 3
			}
		}
		add_core_of = YEM
	}

	provinces={
		4913
	}
	manpower=42638
	buildings_max_level_factor=1.000
}