
state={
	id=1058
	name="STATE_1058" # Libyan Desert
	manpower = 1000
	
	state_category = wasteland
	impassable = yes

	history={
		owner = ITA
		buildings = {
			infrastructure = 0
		}
		add_core_of = LBA
	}

	provinces={
		4191 
	}
}
