
state={
	id=106
	name="STATE_106"
	manpower = 1174200
	
	state_category = rural
	
	resources={
		chromium=70
		aluminium=20
	}

	history={
		owner = SER
		buildings = {
			infrastructure = 4
			industrial_complex = 1
			air_base = 2
		}
		victory_points = {
			3882 1 
		}
		add_core_of = SER
	}

	provinces={
		907 974 3833 3865 3882 6886 11832 11856
	}
}
