
state={
	id=157
	name="STATE_157"
	manpower = 2979335
	
	state_category = city

	history={
		owner = ITA
		buildings = {
			infrastructure = 6
			industrial_complex = 1
			6831 = {
				naval_base = 1
			}
		}
		add_core_of = ITA
		add_core_of = NAP
	}

	provinces={
		923 963 3910 3923 3966 6831 9838 11882 13329
	}
}
