state=
{
	id=177
	name="STATE_177"
	manpower = 365500
	
	state_category = rural
	
	history={
		owner = SPA
		victory_points = {
			9793 1 
		}		
		buildings = {
			infrastructure = 6
			air_base = 1
			9793 = {
				naval_base = 2
			}
			7114 = {
				naval_base = 1
			}
		}
		add_core_of = SPA
	}
	provinces={
		7114 9793 9845 	
	}
}
