
state={
	id=189
	name="STATE_189"
	manpower = 497100
	
	state_category = town
	
	resources={
		steel=2 # was: 3
	}

	history={
		owner = BCM
		victory_points = {
			9483 1
		}
		buildings = {
			infrastructure = 5
			6314 = {
				naval_base = 1
			}
		}
		add_core_of = BCM
	}

	provinces={
		3354 6314 9483 9499 9731 
	}
}
