state={
	id=191
	name="STATE_191"
	
	state_category = rural

	history={
		owner = BCM
		victory_points = {
			9221 1 
		}
		buildings = {
			infrastructure = 5
		}
		add_core_of = BCM

	}

	provinces={
		592 6178 6408 9221 9485
	}
	manpower=276400
	buildings_max_level_factor=1.000
}
