
state={
	id=193
	name="STATE_193" # Chernihiv
	manpower = 1373637
	
	state_category = city

	history={
		owner = UKR
		victory_points = {
			3480 1
		}
		buildings = {
			infrastructure = 5
			air_base = 8
		}
		
		add_core_of = UKR
	}

	provinces={
		238 546 3480 3542 3568 6458 6508 6532 6589 9437 9506 11425 11489
	}
}
