
state={
	id=238
	name="STATE_238"
	manpower = 556677
	
	state_category = rural

	history={
		owner = RCM 
		buildings = {
			infrastructure = 4
		}
		add_core_of = RCM 
		
	}

	provinces={
		426 775 3417 3443 3464 3587 3777 3779 6417 6468 6490 6765 6796 9415 9581 11400 11403 11416 
	}
}
