
state={
	id=241
	name="STATE_241"
	manpower = 400000
	
	state_category = rural

	history={
		owner = UKR
		victory_points = {
			6354 1 
		}
		buildings = {
			infrastructure = 5
			air_base = 3
		}
		add_core_of = UKR
		
	}

	provinces={
		289 6233 6344 6354 9247 9371 9396 11230 11271 11383 11355 13842 13841
	}
}
