
state={
	id=242
	name="STATE_242"

	history={
		owner = RCM 
		victory_points = {
			306 15 
		}
		buildings = {
			infrastructure = 5
			industrial_complex = 2
			air_base = 5

		}
		add_core_of = RCM 
		
		1939.1.1 = {
			buildings = {
				industrial_complex = 3

			}

		}

	}

	provinces={
		306 3247 3313 3362 6273 6387 11290 11353 
	}
	manpower=1000028
	buildings_max_level_factor=1.000
	state_category=large_town
}
