
state={
	id=246
	name="STATE_246"
	resources={
		steel=16.000
	}

	history={
		owner = RCM
		victory_points = {
			11349 1 
		}
		buildings = {
			infrastructure = 5

		}
		add_core_of = RCM 
		

	}

	provinces={
		187 226 287 333 2999 3101 3215 3321 6264 6303 9242 9265 9333 9343 11224 11315 11326 11349 
	}
	manpower=1025458
	buildings_max_level_factor=1.000
	state_category=rural
}
