
state={
	id=256
	name="STATE_256"
	manpower = 1572061
	
	state_category = town

	history={
		owner = RCM
		buildings = {
			infrastructure = 4
		}
		add_core_of = RCM 
		
	}

	provinces={
		282 325 3282 3315 3361 6253 6307 6312 6357 6372 6403 9244 9259 9270 9280 9305 9307 9373 9381 9390 9402 11255 11263 11286 11356 11387 
	}
}
