
state={
	id=258
	name="STATE_258"
	manpower = 1282096
	
	state_category = town

	history={
		owner = RCM 
		buildings = {
			infrastructure = 5
		}
		add_core_of = RCM 
		
	}

	provinces={
		356 3199 3291 3318 3346 6230 6317 6341 6369 6398 9339 9394 
	}
}
