
state={
	id=32
	name="STATE_32" 
	manpower = 1007500
	
	state_category = town
	
	resources={
		steel=56
		aluminium=58
	}

	history={
		owner = FRA
		victory_points = {
			780 1 
		}			
		buildings = {
			infrastructure = 4
		}
		add_core_of = FRA
	}

	provinces={
		762 780 3589 3768 6639 6784 9736 11713 
	}
}
