
state={
	id=403
	name="STATE_403" # Tyumen
	manpower = 939067
	
	state_category = rural

	history={
		owner = RCM
		buildings = {
			infrastructure = 3
		}
		add_core_of = RCM
<<<<<<< HEAD
=======
<<<<<<< HEAD
		
=======
		add_core_of = SIB
		add_core_of = RUS
>>>>>>> master
>>>>>>> master
	}

	provinces={
		1387 1880 3472 4209 4659 4754 4780 4824 6787 7681 7774 7833 7846 9512 10600 10659 10670 12390 12521 
	}
}
