
state={
	id=416
	name="STATE_416"
	manpower = 1059739
	state_category = rural

	history={
		owner = BAX
		buildings = {
			infrastructure = 3
			industrial_complex = 2
		}
		victory_points = {
			5029 1 
		}
		add_core_of = BAX
	}

	provinces={
		1521 1888 1957 2000 5029 5073 7573 7990 8009 10351 10759 10806 10873 10890 12739 12852
	}
}
