
state={
	id=417
	name="STATE_417" # Hamadan
	manpower = 796396
	state_category = rural

	history={
		owner = BAX
		buildings = {
			infrastructure = 3
		}
		add_core_of = BAX
	}

	provinces={
		829 5050 8040 8125 9816 10774 12773 
	}
}
