
state={
	id=455
	name="STATE_455"
	manpower = 732000
	
	state_category = town

	history={
		owner = JOR
		buildings = {
			infrastructure = 3
			industrial_complex = 1
		}
		victory_points = {
			7151 2 
		}
		victory_points = {
			7170 1 
		}		

		add_core_of = JOR
	}

	provinces={
		1544 4574 7001 7151 7170 
	}
}
