
state={
	id=465
	name="STATE_465"
	manpower = 475020
	
	state_category = rural

	history={
		owner = NSA
		buildings = {
			infrastructure = 5
			industrial_complex = 2
			4285 = {
				naval_base = 2
			}
		}
		add_core_of = NSA
	}

	provinces={
		634 1424 4285 4342 4362 4432 7379 12289 
	}
}
