
state={
	id=480
	name="STATE_480"
	manpower = 550717
	
	state_category = town
	
	resources={
		oil=48
	}

	history={
		owner = NSA
		buildings = {
			infrastructure = 3
			industrial_complex = 1
		}
		add_core_of = NSA
		

	}

	provinces={
		2060 2104 7973 10738 10746 10800 12811 
	}
	
}
