
state={
	id=481
	name="STATE_481" # Durango
	manpower = 464364
	
	state_category = rural
	
	resources={
		steel=4
	}

	history={
		owner = NSA
		victory_points = {
			7921 3
		}
		buildings = {
			infrastructure = 3
			industrial_complex = 1
			
		}
		add_core_of = NSA
	}

	provinces={
		4946 7921 8003 10853 10871 12804 
	}
	
}
