
state={
	id=488
	name="STATE_488"
	manpower = 190642
	
	state_category = wasteland
	impassable = yes	

	history={
		owner = VEN
		buildings = {
			infrastructure = 1

		}
		add_core_of = VEN
	}

	provinces={
		7915 10736 10849 10879 13314 13315 13316 13321 13322 13324 13325 13331 13332 13514
	}
}
