
state={
	id=51
	name="STATE_51"
	manpower = 4144743
	resources={
		steel=16
	}


	state_category = metropolis
	
	history={
		owner = GRS
		victory_points = { 587 20 }
		victory_points = { 3547 5 }
		buildings = {
			infrastructure = 8
			arms_factory = 2
			industrial_complex = 1
			air_base = 3

		}
		add_core_of = GRS
		add_core_of = GCM
		

		1939.1.1 = {
			buildings = {
				air_base = 6
				radar_station = 1
			}
		}
	
		
	}

	provinces={
		587 3444 3547 9522 
	}
	
}
