
state={
	id=560
	name="STATE_560" # Nikolayevsk
	manpower = 97663
	
	state_category = rural
	resources={
		steel=24
	}

	history={
		owner = RCM

		buildings = {
			infrastructure = 3
		}
		add_core_of = RCM
<<<<<<< HEAD
		
=======
		add_core_of = DVR
		add_core_of = SIB
		add_core_of = RUS
>>>>>>> master
	}

	provinces={
		1724 1772 1807 1842 3664 4290 4844 7748 7871 9659 10571 10577 10590 12559 12569 12638 13413 13414 13418 13421 13428
	}
}
