
state={
	id=573
	name="STATE_573" # Zlatoust
	manpower = 556677
	
	state_category = pastoral
	resources={
		chromium=32
	}

	history={
		owner = RCM
		buildings = {
			infrastructure = 4

		}
		add_core_of = RCM 
		
	}

	provinces={
		237 278 361 3280 4758 7320 10136 10142 10329 11223 11307 12117 
	}
}
