state={
	id=584
	name="STATE_584"

	history={
		owner = BAX
		buildings = {
			infrastructure = 2
			industrial_complex = 1

		}
		victory_points = {
			12333 1
		}
		add_core_of = BAX
		add_core_of = RCM

	}

	provinces={
		 1593 1649 4599 7477 7491  7563 7618 7924 8099 9605 10357 10359 10414 10510 12333 12359 12491 
	}
	manpower=1064523
	buildings_max_level_factor=1.000
	state_category=pastoral
}
