
state={
	id=619
	name="STATE_619" # Yarkand
	manpower = 1430700
	
	state_category = rural
	
	resources={
		aluminium=2 # was: 2
		chromium=2 # was: 3
	}

	history={
		owner = SIK
		victory_points = { 2015 10 }
		victory_points = { 5087 1 }
		add_core_of = SIK
		add_core_of = CHI
		add_core_of = PRC
		buildings = {
			infrastructure = 3
			industrial_complex = 1
			arms_factory = 1
		}
	}

	provinces={
		1766 2015 5087 12119 
	}
}
