state={
	id=728
	name="STATE_728"
	manpower = 200000
	
	state_category = enclave
	
	history={
		owner = FIC
		add_core_of = CHI
		add_core_of = PRC
		victory_points = {
			11981 3 
		}		
		buildings = {
			infrastructure = 3
			11981 = {
				naval_base = 1
			}
		}
	}
	
	provinces={
		11981 
	}
}
