state={
	id=73
	name="STATE_73"
	manpower = 854300
	
	state_category = rural
	
	history={
		owner = HCM 
		victory_points = {
			13844 1
		}				
		buildings = {
			infrastructure = 5
		}
		add_core_of = HCM
		

		1939.3.14 = {
			owner = HCM
			controller = HCM
			
		}
	}

	provinces={
		3548 6571 9563 11536 13844
	}
}
