state={
	id=732
	name="STATE_732"

	history={
		owner = TYR
		buildings = {
			infrastructure = 1

		}
		add_core_of = TYR
		add_core_of = KYR
		add_core_of = RUS

	}

	provinces={
		1483 1675 1825 2058 4224 4316 4391 4467 4768 4923 5062 10408 10530 10660 12370 12511 12581 12583 13147 
	}
	manpower=230000
	buildings_max_level_factor=1.000
	state_category=wasteland
}
