state={
	id=736
	name="STATE_736"
	
	state_category = rural

	history={
		owner = ITA
		add_core_of = ITA
		add_core_of = SLV
		add_core_of = VNC
		buildings = {
			infrastructure = 2

		}

	}

	provinces={
		599 11595 
	}
	manpower=433159
	buildings_max_level_factor=1.000
}
