
state={
	id=769
	name="STATE_769"
	manpower = 10040
	
	state_category = wasteland
	
	resources={
		oil=1
	}

	history={
		owner = SAU
		victory_points = {
			13740 2
		}		
		buildings = {
			infrastructure = 1
		}
		add_core_of = SAU
	}

	provinces={
		2057 4968 4974 5027 5058 5099 7934 7970 8101 10815 10892 10901 10923 12455 12749 12758 12813 13651 13686 13699 13701 13705 13708 13714 13716 13717 13718 13720 13722 13724 13725 13726 13727 13729 13730 13732 13733 13735 13738 13740 13742 13743 13744 13745 13746 13747 13748 13750 13751 13752 13753 13754 13755 13756 13757
	}
}