
state={
	id=775
	name="STATE_775" # Lihtenstein
	manpower = 11000
	
	state_category = town

	history={
		owner = SWI
		victory_points = { 13206 5 }
		buildings = {
			infrastructure = 4
			industrial_complex = 1
		}
		add_core_of = SWI
	}

	provinces={
		13206
	}
}
