state=
{
	id=778
	name="STATE_778"
	manpower = 585579
	
	state_category = pastoral
	
	history =
	{
		owner = HCM
		buildings = {
			infrastructure = 6
		}
		victory_points = {
			614 1
		}
		add_core_of = HCM
		
	}
	provinces={
		614 3614 6643 11787 	}
	}
