state=
{
	id=780
	name="STATE_780"
	manpower = 566600
	
	state_category = rural
	
	history=
	{
		owner = ROM
		buildings = {
			infrastructure = 4
			dockyard = 1
			6727 = {
				naval_base = 3
			}
		}
		add_core_of = ROM
		
		victory_points = {
			6727 1
		}
	}
	provinces=
	{
3701 3704 6727 13596	}
}
