
state={
	id=793
	name="STATE_793"
	manpower = 130000
	resources={
		steel=1 # was: 3
	}
	state_category = town
	history={
		owner = BCM
		victory_points = {
			3174 1 
		}
		buildings = {
			infrastructure = 5
			industrial_complex = 1
		}
		add_core_of = BCM
	}

	provinces={
		83 308 3174 3074 6381 11291
	}
}
