state=
{
	id=848
	name="STATE_848"
	manpower = 500000
	
	state_category = town
	
	resources={
		steel=7
	}
	
	history={
		owner = GCM
		buildings = {
			infrastructure = 8
			5283 =
			{
				bunker = 1
			}

		}
		add_core_of = GCM
		

		1938.9.30 = {
			owner = GCM
			controller = GCM
		}
	}
	provinces=
	{
543 5283 7857 	}
}
