
state={
	id=867
	name="STATE_867" # Durango
	manpower =  640191
	
	state_category = town
	
	resources={
		steel=4
	}

	history={
		owner = NSA
		victory_points = {
			12835 1
		}
		buildings = {
			infrastructure = 3
			industrial_complex = 1
			
		}
		add_core_of = NSA
		
	}

	provinces={
		10769 12721 12835 13335
	}
	
}
