
state={
	id=868
	name="STATE_868"
	manpower = 600831
	
	state_category = town

	history={
		owner = NSA
		buildings = {
			infrastructure = 3
			industrial_complex = 1
		}
		add_core_of = NSA
		victory_points = {
			4956 1 
		}

	}

	provinces={
		1952 4956 13336
	}
	
}
