state={
	id=87
	name="STATE_87"
	manpower = 3053942
	
	state_category = town
	history={
		owner = PCM
		buildings = {
			infrastructure = 6
			industrial_complex = 2
		}
		victory_points = {
			9508 20
		}
		victory_points = {
			9439 2 # Kalysz
		}
		victory_points = {
			13212 1 # Czestochowa
		}		
		add_core_of = PCM

		1939.1.1 = {
			buildings = {
				air_base = 3
			}
		}
	}

	provinces={
		493 548 584 9439 9508 9546 11428 11515 13212 13781
	}
}
