
state={
	id=887
	name="STATE_887"
	manpower = 30000
	state_category = rural

	history={
		owner = RCM
		victory_points = {
			13382 1
		}
		buildings = {
			infrastructure = 1
			13382 ={
				naval_base = 1
			}
		}
<<<<<<< HEAD
		add_core_of = RCM 
		
=======
		add_core_of = RCM
		add_core_of = DVR
		add_core_of = RUS
		add_core_of = SIB
>>>>>>> master
	}

	provinces={
		13382 13383
	}
}
