state={
	id=896
	name="STATE_896"
	resources={
		oil=30 # was: 126.000
	}

	history={
		owner = KAW
		victory_points = {
			11674 1 
		}
		buildings = {
			infrastructure = 4
		}
		add_core_of = KAW
		add_core_of = AZR

	}

	provinces={
		1539 1610 4477 6763 11645 11674 11704
	}
	manpower=1100000
	buildings_max_level_factor=1.000
	state_category=town
}
