state={
	id=897
	name="STATE_897"

	history={
		owner = KAW
		buildings = {
			infrastructure = 3
			industrial_complex = 1

		}
		add_core_of = KAW
		add_core_of = GEO
		1939.1.1 = {
			buildings = {
				industrial_complex = 2

			}

		}

	}

	provinces={
		654 672 772 3656 3658 6674 
	}
	manpower=1200000
	buildings_max_level_factor=1.000
	state_category=town
}
