state={
	id=90
	name="STATE_90" # Kielce
	manpower = 1512000
	
	state_category = town
	
	resources={
		steel=8
	}

	history={
		owner = PCM
		victory_points = {
			6416 2 # Kielce
		}
		buildings = {
			infrastructure = 6
		}
		add_core_of = PCM
	}

	provinces={
		562 3458 3497 3586 6416 11430 11532  
	}
}
