
state={
	id=900
	name="STATE_900" # Gomel
	manpower = 543422
	
	state_category = rural

	history={
		owner = UKR
		victory_points = {
			9288 10 
		}
		buildings = {
			infrastructure = 5
		}
		
		add_core_of = UKR
	}

	provinces={
		9342 9288
	}
}
