
state={
	id=901
	name="STATE_901"

	history={
		owner = RCM 
		buildings = {
			infrastructure = 5

		}
		add_core_of = RCM 
		

	}

	provinces={
		335 3279 9272 9318 9382 11254 11384 9399 13851
	}
	manpower=300000
	buildings_max_level_factor=1.000
	state_category=town
}
