state=
{
	id=904
	name="STATE_904"
	manpower = 100000
	
	state_category = enclave
	
	history =
	{
		owner = ITA
		buildings = {
			infrastructure = 5
		}
		add_core_of = ITA
	}
	provinces={
		13286 	}
	}
