state={
	id=962
	name="STATE_962"
	manpower = 720234
	
	state_category = town

	history={
		owner = BAX
		buildings = {
			infrastructure = 2
		}
		add_core_of = BAX
	}
	
	provinces={
		5014 6826 10811 
	}
}
