
state={
	id=963
	name="STATE_963"
	manpower = 331714
	
	state_category = rural
	history={
		owner = BAX
		buildings = {
			infrastructure = 3
		}
		victory_points = {
			1896 3 
		}
		add_core_of = BAX
	}

	provinces={
		1636 7604 13821
	}
}
