state={
	id=971
	name="STATE_971"

	history={
		owner = KAW
		victory_points = {
			9626 1 
		}
		buildings = {
			infrastructure = 3
			industrial_complex = 1

		}
		add_core_of = KAW
		add_core_of = GEO
		add_core_of = OAL
		1939.1.1 = {
			buildings = {
				industrial_complex = 2

			}

		}

	}

	provinces={
		9626 
	}
	manpower=106118
	buildings_max_level_factor=1.000
	state_category=town
}
