state={
	id=992
	name="STATE_992"
	manpower = 450000
	
	state_category = rural
	
	history={
		owner = BCM
		buildings = {
			infrastructure = 5
		}
		add_core_of = BCM
	}

	provinces={
		222 319 341 7482
	}
}
