state={
	id=993
	name="STATE_993"
	manpower = 200000
	
	state_category = town

	history={
		owner = RCM 
		buildings = {
			infrastructure = 6
		}
		add_core_of = RCM 
		
	}

	provinces={
		207 248 3333 6242 9254 9331 9353 11234 
	}
}
